@Салаты,,,
$Мимоза,,,
сайра,250.00    ,6.00    ,41.67
картофель,500.00    ,6.00    ,83.33
морковь,240.00    ,6.00    ,40.00
лук,180.00    ,6.00    ,30.00
яйцо куриное,100.00    ,6.00    ,16.67
сыр,150.00    ,6.00    ,25.00
майонез,200.00    ,6.00    ,33.33
$Салат "Селедка под шубой",,,#DIV/0!
селедка,400.00    ,6.00    ,66.67
лук репчатый,84.00    ,6.00    ,14.00
картофель,339.00    ,6.00    ,56.50
морковь,560,6.00    ,93.33
яйцо куриное,200.00    ,6.00    ,33.33
свекла,350.00    ,6.00    ,58.33
майонез,200,6.00    ,33.33
$Классический крабовый салат ,,,#DIV/0!
крабовые палочки,400,6.00    ,66.67
консервированная кукуруза,340,6.00    ,56.67
яйцо куриное,250,6.00    ,41.67
рис,200,6.00    ,33.33
лук репчатый,80,6.00    ,13.33
майонез,200,6.00    ,33.33
огурцы свежие,200,6.00    ,33.33
петрушка,50,6.00    ,8.33
$Салат "Цезарь",,,#DIV/0!
салат Айсберг,500,6,83.33
помидоры,280,6,46.67
куриное филе,600,6,100.00
белый хлеб,120,6,20.00
чеснок,36,6,6.00
сыр Пармезан,50,6,8.33
оливковое масло,200,6,33.33
$Салат "Греческий",,,#DIV/0!
маслины ,250,5,50.00
сыр фета,150,5,30.00
перец болгарский,226,5,45.20
огурцы свежие,300,5,60.00
красный лук,132,5,26.40
помидоры,500,5,100.00
оливковое масло,70,5,14.00
базилик,150,5,30.00
петрушка,150,5,30.00
$Оливье традиционный,,,#DIV/0!
огурцы соленые,400,7,57.14
зеленый горошек  ,120,7,17.14
картофель,339,7,48.43
морковь,140,7,20.00
яйцо куриное,300,7,42.86
колбаса вареная,450,7,64.29
майонез,200,7,28.57
лук репчатый,80,7,11.43
петрушка,200,7,28.57
$Оливье с креветками,,,#DIV/0!
креветки,300,6,50.00
авокадо,510,6,85.00
морковь,350,6,58.33
огурцы свежие,300,6,50.00
зеленый горошек консервированный,350,6,58.33
яйцо куриное,150,6,25.00
лук репчатый,115,6,19.17
кешью,250,6,41.67
чеснок,30,6,5.00
горчица,20,6,3.33
оливковое масло,70,6,11.67
@Основные блюда,,,#DIV/0!
$Мясо по-французски,,,#DIV/0!
картофель,1200,6,200.00
лук репчатый,168,6,28.00
свинина,450,6,75.00
помидоры,420,6,70.00
сыр "Сливочный",300,6,50.00
майонез,250,6,41.67
$Жаркое с говядиной,,,#DIV/0!
говядина,450,6,75.00
картофель,900,6,150.00
сливочное масло,60,6,10.00
лук,150,6,25.00
морковь,180,6,30.00
чеснок,10,6,1.67
петрушка,150,6,25.00
сметана,,6,0.00
укроп,,6,0.00
сыр "Сливочный",,6,0.00